<?xml version="1.0" encoding="UTF-8"?>
<kml xmlns="http://www.opengis.net/kml/2.2" xmlns:gx="http://www.google.com/kml/ext/2.2" xmlns:kml="http://www.opengis.net/kml/2.2" xmlns:atom="http://www.w3.org/2005/Atom">
<Document>
	<name>Smaller regions.kml</name>
	<open>1</open>
	<Style id="sn_ylw-pushpin80">
		<IconStyle>
			<scale>1.1</scale>
			<Icon>
				<href>http://maps.google.com/mapfiles/kml/pushpin/ylw-pushpin.png</href>
			</Icon>
			<hotSpot x="20" y="2" xunits="pixels" yunits="pixels"/>
		</IconStyle>
		<LineStyle>
			<color>ff0000ff</color>
		</LineStyle>
		<PolyStyle>
			<color>8006ff21</color>
			<outline>0</outline>
		</PolyStyle>
	</Style>
	<Style id="sh_ylw-pushpin">
		<IconStyle>
			<scale>1.3</scale>
			<Icon>
				<href>http://maps.google.com/mapfiles/kml/pushpin/ylw-pushpin.png</href>
			</Icon>
			<hotSpot x="20" y="2" xunits="pixels" yunits="pixels"/>
		</IconStyle>
		<BalloonStyle>
		</BalloonStyle>
		<LineStyle>
			<color>667fffaa</color>
		</LineStyle>
		<PolyStyle>
			<color>667fffaa</color>
		</PolyStyle>
	</Style>
	<Style id="sh_ylw-pushpin50">
		<IconStyle>
			<scale>1.3</scale>
			<Icon>
				<href>http://maps.google.com/mapfiles/kml/pushpin/ylw-pushpin.png</href>
			</Icon>
			<hotSpot x="20" y="2" xunits="pixels" yunits="pixels"/>
		</IconStyle>
		<LineStyle>
			<color>ff0000ff</color>
		</LineStyle>
		<PolyStyle>
			<color>800701fc</color>
			<outline>0</outline>
		</PolyStyle>
	</Style>
	<StyleMap id="msn_ylw-pushpin">
		<Pair>
			<key>normal</key>
			<styleUrl>#sn_ylw-pushpin2</styleUrl>
		</Pair>
		<Pair>
			<key>highlight</key>
			<styleUrl>#sh_ylw-pushpin2</styleUrl>
		</Pair>
	</StyleMap>
	<StyleMap id="msn_ylw-pushpin0">
		<Pair>
			<key>normal</key>
			<styleUrl>#sn_ylw-pushpin</styleUrl>
		</Pair>
		<Pair>
			<key>highlight</key>
			<styleUrl>#sh_ylw-pushpin1</styleUrl>
		</Pair>
	</StyleMap>
	<Style id="sh_ylw-pushpin0">
		<IconStyle>
			<scale>1.3</scale>
			<Icon>
				<href>http://maps.google.com/mapfiles/kml/pushpin/ylw-pushpin.png</href>
			</Icon>
			<hotSpot x="20" y="2" xunits="pixels" yunits="pixels"/>
		</IconStyle>
		<BalloonStyle>
		</BalloonStyle>
		<LineStyle>
			<color>6600aa55</color>
		</LineStyle>
		<PolyStyle>
			<color>6600aa55</color>
		</PolyStyle>
	</Style>
	<Style id="sh_ylw-pushpin1">
		<IconStyle>
			<scale>1.3</scale>
			<Icon>
				<href>http://maps.google.com/mapfiles/kml/pushpin/ylw-pushpin.png</href>
			</Icon>
			<hotSpot x="20" y="2" xunits="pixels" yunits="pixels"/>
		</IconStyle>
		<BalloonStyle>
		</BalloonStyle>
		<LineStyle>
			<color>66ff0055</color>
		</LineStyle>
		<PolyStyle>
			<color>66ff0055</color>
		</PolyStyle>
	</Style>
	<Style id="sn_ylw-pushpin">
		<IconStyle>
			<scale>1.1</scale>
			<Icon>
				<href>http://maps.google.com/mapfiles/kml/pushpin/ylw-pushpin.png</href>
			</Icon>
			<hotSpot x="20" y="2" xunits="pixels" yunits="pixels"/>
		</IconStyle>
		<BalloonStyle>
		</BalloonStyle>
		<LineStyle>
			<color>66ff0055</color>
		</LineStyle>
		<PolyStyle>
			<color>66ff0055</color>
		</PolyStyle>
	</Style>
	<Style id="sn_ylw-pushpin44">
		<IconStyle>
			<scale>1.1</scale>
			<Icon>
				<href>http://maps.google.com/mapfiles/kml/pushpin/ylw-pushpin.png</href>
			</Icon>
			<hotSpot x="20" y="2" xunits="pixels" yunits="pixels"/>
		</IconStyle>
		<LineStyle>
			<color>ff0000ff</color>
		</LineStyle>
		<PolyStyle>
			<color>80ffff20</color>
			<outline>0</outline>
		</PolyStyle>
	</Style>
	<Style id="sn_ylw-pushpin14">
		<IconStyle>
			<scale>1.1</scale>
			<Icon>
				<href>http://maps.google.com/mapfiles/kml/pushpin/ylw-pushpin.png</href>
			</Icon>
			<hotSpot x="20" y="2" xunits="pixels" yunits="pixels"/>
		</IconStyle>
		<LineStyle>
			<color>ff0000ff</color>
		</LineStyle>
		<PolyStyle>
			<color>80ffff20</color>
			<outline>0</outline>
		</PolyStyle>
	</Style>
	<Style id="s_ylw-pushpin_hl30">
		<IconStyle>
			<scale>1.3</scale>
			<Icon>
				<href>http://maps.google.com/mapfiles/kml/pushpin/ylw-pushpin.png</href>
			</Icon>
			<hotSpot x="20" y="2" xunits="pixels" yunits="pixels"/>
		</IconStyle>
		<LineStyle>
			<color>ff0000ff</color>
		</LineStyle>
		<PolyStyle>
			<color>800000ff</color>
			<outline>0</outline>
		</PolyStyle>
	</Style>
	<Style id="sn_ylw-pushpin90">
		<IconStyle>
			<scale>1.1</scale>
			<Icon>
				<href>http://maps.google.com/mapfiles/kml/pushpin/ylw-pushpin.png</href>
			</Icon>
			<hotSpot x="20" y="2" xunits="pixels" yunits="pixels"/>
		</IconStyle>
		<LineStyle>
			<color>ff0000ff</color>
		</LineStyle>
		<PolyStyle>
			<color>800701fc</color>
			<outline>0</outline>
		</PolyStyle>
	</Style>
	<StyleMap id="msn_ylw-pushpin60">
		<Pair>
			<key>normal</key>
			<styleUrl>#sn_ylw-pushpin44</styleUrl>
		</Pair>
		<Pair>
			<key>highlight</key>
			<styleUrl>#sh_ylw-pushpin200</styleUrl>
		</Pair>
	</StyleMap>
	<StyleMap id="msn_ylw-pushpin11">
		<Pair>
			<key>normal</key>
			<styleUrl>#sn_ylw-pushpin14</styleUrl>
		</Pair>
		<Pair>
			<key>highlight</key>
			<styleUrl>#sh_ylw-pushpin10</styleUrl>
		</Pair>
	</StyleMap>
	<Style id="s_ylw-pushpin20">
		<IconStyle>
			<scale>1.1</scale>
			<Icon>
				<href>http://maps.google.com/mapfiles/kml/pushpin/ylw-pushpin.png</href>
			</Icon>
			<hotSpot x="20" y="2" xunits="pixels" yunits="pixels"/>
		</IconStyle>
		<LineStyle>
			<color>ff0000ff</color>
		</LineStyle>
		<PolyStyle>
			<color>800000ff</color>
			<outline>0</outline>
		</PolyStyle>
	</Style>
	<StyleMap id="msn_ylw-pushpin20">
		<Pair>
			<key>normal</key>
			<styleUrl>#sn_ylw-pushpin90</styleUrl>
		</Pair>
		<Pair>
			<key>highlight</key>
			<styleUrl>#sh_ylw-pushpin50</styleUrl>
		</Pair>
	</StyleMap>
	<StyleMap id="msn_ylw-pushpin50">
		<Pair>
			<key>normal</key>
			<styleUrl>#sn_ylw-pushpin100</styleUrl>
		</Pair>
		<Pair>
			<key>highlight</key>
			<styleUrl>#sh_ylw-pushpin70</styleUrl>
		</Pair>
	</StyleMap>
	<Style id="sn_ylw-pushpin100">
		<IconStyle>
			<scale>1.1</scale>
			<Icon>
				<href>http://maps.google.com/mapfiles/kml/pushpin/ylw-pushpin.png</href>
			</Icon>
			<hotSpot x="20" y="2" xunits="pixels" yunits="pixels"/>
		</IconStyle>
		<LineStyle>
			<color>ff0000ff</color>
		</LineStyle>
		<PolyStyle>
			<color>80800080</color>
			<outline>0</outline>
		</PolyStyle>
	</Style>
	<StyleMap id="m_ylw-pushpin30">
		<Pair>
			<key>normal</key>
			<styleUrl>#s_ylw-pushpin20</styleUrl>
		</Pair>
		<Pair>
			<key>highlight</key>
			<styleUrl>#s_ylw-pushpin_hl30</styleUrl>
		</Pair>
	</StyleMap>
	<Style id="sn_ylw-pushpin0">
		<IconStyle>
			<scale>1.1</scale>
			<Icon>
				<href>http://maps.google.com/mapfiles/kml/pushpin/ylw-pushpin.png</href>
			</Icon>
			<hotSpot x="20" y="2" xunits="pixels" yunits="pixels"/>
		</IconStyle>
		<BalloonStyle>
		</BalloonStyle>
		<LineStyle>
			<color>6600aa55</color>
		</LineStyle>
		<PolyStyle>
			<color>6600aa55</color>
		</PolyStyle>
	</Style>
	<Style id="sh_ylw-pushpin70">
		<IconStyle>
			<scale>1.3</scale>
			<Icon>
				<href>http://maps.google.com/mapfiles/kml/pushpin/ylw-pushpin.png</href>
			</Icon>
			<hotSpot x="20" y="2" xunits="pixels" yunits="pixels"/>
		</IconStyle>
		<LineStyle>
			<color>ff0000ff</color>
		</LineStyle>
		<PolyStyle>
			<color>80800080</color>
			<outline>0</outline>
		</PolyStyle>
	</Style>
	<StyleMap id="msn_ylw-pushpin70">
		<Pair>
			<key>normal</key>
			<styleUrl>#sn_ylw-pushpin80</styleUrl>
		</Pair>
		<Pair>
			<key>highlight</key>
			<styleUrl>#sh_ylw-pushpin19</styleUrl>
		</Pair>
	</StyleMap>
	<Style id="sn_ylw-pushpin1">
		<IconStyle>
			<scale>1.1</scale>
			<Icon>
				<href>http://maps.google.com/mapfiles/kml/pushpin/ylw-pushpin.png</href>
			</Icon>
			<hotSpot x="20" y="2" xunits="pixels" yunits="pixels"/>
		</IconStyle>
		<BalloonStyle>
		</BalloonStyle>
		<LineStyle>
			<color>667fffaa</color>
		</LineStyle>
		<PolyStyle>
			<color>667fffaa</color>
		</PolyStyle>
	</Style>
	<Style id="sh_ylw-pushpin200">
		<IconStyle>
			<scale>1.3</scale>
			<Icon>
				<href>http://maps.google.com/mapfiles/kml/pushpin/ylw-pushpin.png</href>
			</Icon>
			<hotSpot x="20" y="2" xunits="pixels" yunits="pixels"/>
		</IconStyle>
		<LineStyle>
			<color>ff0000ff</color>
		</LineStyle>
		<PolyStyle>
			<color>80ffff20</color>
			<outline>0</outline>
		</PolyStyle>
	</Style>
	<Style id="sh_ylw-pushpin2">
		<IconStyle>
			<scale>1.3</scale>
			<Icon>
				<href>http://maps.google.com/mapfiles/kml/pushpin/ylw-pushpin.png</href>
			</Icon>
			<hotSpot x="20" y="2" xunits="pixels" yunits="pixels"/>
		</IconStyle>
		<BalloonStyle>
		</BalloonStyle>
		<LineStyle>
			<color>80ff00ff</color>
		</LineStyle>
		<PolyStyle>
			<color>80ff00ff</color>
		</PolyStyle>
	</Style>
	<StyleMap id="msn_ylw-pushpin1">
		<Pair>
			<key>normal</key>
			<styleUrl>#sn_ylw-pushpin0</styleUrl>
		</Pair>
		<Pair>
			<key>highlight</key>
			<styleUrl>#sh_ylw-pushpin0</styleUrl>
		</Pair>
	</StyleMap>
	<StyleMap id="msn_ylw-pushpin2">
		<Pair>
			<key>normal</key>
			<styleUrl>#sn_ylw-pushpin1</styleUrl>
		</Pair>
		<Pair>
			<key>highlight</key>
			<styleUrl>#sh_ylw-pushpin</styleUrl>
		</Pair>
	</StyleMap>
	<Style id="sh_ylw-pushpin19">
		<IconStyle>
			<scale>1.3</scale>
			<Icon>
				<href>http://maps.google.com/mapfiles/kml/pushpin/ylw-pushpin.png</href>
			</Icon>
			<hotSpot x="20" y="2" xunits="pixels" yunits="pixels"/>
		</IconStyle>
		<LineStyle>
			<color>ff0000ff</color>
		</LineStyle>
		<PolyStyle>
			<color>8006ff21</color>
			<outline>0</outline>
		</PolyStyle>
	</Style>
	<Style id="sh_ylw-pushpin10">
		<IconStyle>
			<scale>1.3</scale>
			<Icon>
				<href>http://maps.google.com/mapfiles/kml/pushpin/ylw-pushpin.png</href>
			</Icon>
			<hotSpot x="20" y="2" xunits="pixels" yunits="pixels"/>
		</IconStyle>
		<LineStyle>
			<color>ff0000ff</color>
		</LineStyle>
		<PolyStyle>
			<color>80ffff20</color>
			<outline>0</outline>
		</PolyStyle>
	</Style>
	<Style id="sn_ylw-pushpin2">
		<IconStyle>
			<scale>1.1</scale>
			<Icon>
				<href>http://maps.google.com/mapfiles/kml/pushpin/ylw-pushpin.png</href>
			</Icon>
			<hotSpot x="20" y="2" xunits="pixels" yunits="pixels"/>
		</IconStyle>
		<BalloonStyle>
		</BalloonStyle>
		<LineStyle>
			<color>80ff00ff</color>
		</LineStyle>
		<PolyStyle>
			<color>80ff00ff</color>
		</PolyStyle>
	</Style>
	<Folder>
		<name>Smaller regions</name>
		<open>1</open>
		<Placemark>
			<name>2</name>
			<styleUrl>#msn_ylw-pushpin50</styleUrl>
			<Polygon>
				<tessellate>1</tessellate>
				<outerBoundaryIs>
					<LinearRing>
						<coordinates>
							23.43410748894373,44.62482024564083,0 23.49926613488742,44.26105032665872,0 24.34717096203558,44.30059156138805,0 24.29244526520991,44.72230998075815,0 23.43410748894373,44.62482024564083,0 
						</coordinates>
					</LinearRing>
				</outerBoundaryIs>
			</Polygon>
		</Placemark>
		<Placemark>
			<name>7</name>
			<styleUrl>#m_ylw-pushpin30</styleUrl>
			<Polygon>
				<tessellate>1</tessellate>
				<outerBoundaryIs>
					<LinearRing>
						<coordinates>
							25.75204099022418,45.11108422810181,0 25.87364632944172,44.80611687163663,0 26.41940835275113,44.96789927831955,0 26.29486445677018,45.29926214796124,0 25.75204099022418,45.11108422810181,0 
						</coordinates>
					</LinearRing>
				</outerBoundaryIs>
			</Polygon>
		</Placemark>
		<Placemark>
			<name>8</name>
			<styleUrl>#msn_ylw-pushpin20</styleUrl>
			<Polygon>
				<tessellate>1</tessellate>
				<outerBoundaryIs>
					<LinearRing>
						<coordinates>
							26.53270877255202,44.93277525715612,0 26.61905569153634,44.60968595746576,0 26.83294714642683,44.58030262536979,0 27.21944038636376,44.60561217006292,0 27.07597437642028,44.91928688379235,0 26.96793596170079,44.94812329393547,0 26.89186588770337,44.94689162900943,0 26.81593308085541,44.95407442982547,0 26.53270877255202,44.93277525715612,0 
						</coordinates>
					</LinearRing>
				</outerBoundaryIs>
			</Polygon>
		</Placemark>
		<Placemark>
			<name>9</name>
			<styleUrl>#msn_ylw-pushpin11</styleUrl>
			<Polygon>
				<tessellate>1</tessellate>
				<outerBoundaryIs>
					<LinearRing>
						<coordinates>
							26.60143282308326,45.39658596450073,0 26.60100574606975,45.38759053772976,0 26.59422587031931,45.06646103511972,0 27.039443226451,45.02551572921823,0 27.05123556933596,45.37459007278444,0 26.60143282308326,45.39658596450073,0 
						</coordinates>
					</LinearRing>
				</outerBoundaryIs>
			</Polygon>
		</Placemark>
		<Placemark>
			<name>10a</name>
			<styleUrl>#msn_ylw-pushpin60</styleUrl>
			<Polygon>
				<tessellate>1</tessellate>
				<outerBoundaryIs>
					<LinearRing>
						<coordinates>
							27.10045118728052,45.33417130777309,0 27.04487426344737,44.97123954405394,0 27.41272455761765,44.97900664626291,0 27.52205262662938,45.32288530201713,0 27.10045118728052,45.33417130777309,0 
						</coordinates>
					</LinearRing>
				</outerBoundaryIs>
			</Polygon>
		</Placemark>
		<Placemark>
			<name>10b</name>
			<styleUrl>#msn_ylw-pushpin11</styleUrl>
			<Polygon>
				<tessellate>1</tessellate>
				<outerBoundaryIs>
					<LinearRing>
						<coordinates>
							27.15627779863428,44.83589853112412,0 27.24924299568786,44.75206489264367,0 27.57165639937135,44.91998492673681,0 27.43915370344219,44.99027733746955,0 27.15627779863428,44.83589853112412,0 
						</coordinates>
					</LinearRing>
				</outerBoundaryIs>
			</Polygon>
		</Placemark>
		<Placemark>
			<name>10c</name>
			<styleUrl>#msn_ylw-pushpin11</styleUrl>
			<Polygon>
				<tessellate>1</tessellate>
				<outerBoundaryIs>
					<LinearRing>
						<coordinates>
							27.52938040896039,45.18467063400268,0 27.5039620530064,44.96357467376036,0 27.69226187534289,44.85638106157843,0 27.95191540431462,44.82106792633247,0 27.95313056898663,44.91832903877148,0 27.69334626738799,44.95752930296251,0 27.68980648026633,45.15608697502722,0 27.52938040896039,45.18467063400268,0 
						</coordinates>
					</LinearRing>
				</outerBoundaryIs>
			</Polygon>
		</Placemark>
		<Placemark>
			<name>11</name>
			<styleUrl>#m_ylw-pushpin30</styleUrl>
			<Polygon>
				<tessellate>1</tessellate>
				<outerBoundaryIs>
					<LinearRing>
						<coordinates>
							26.15040738059083,46.66212196909256,0 26.42012925170092,46.02172149472699,0 26.89233511964423,46.11001773821599,0 26.62751888104393,46.74194108503605,0 26.15040738059083,46.66212196909256,0 
						</coordinates>
					</LinearRing>
				</outerBoundaryIs>
			</Polygon>
		</Placemark>
		<Placemark>
			<name>12</name>
			<styleUrl>#msn_ylw-pushpin70</styleUrl>
			<Polygon>
				<tessellate>1</tessellate>
				<outerBoundaryIs>
					<LinearRing>
						<coordinates>
							24.00201706635652,46.49735559319468,0 24.56407821511352,46.51877462080445,0 24.55229513552743,46.68246153914865,0 24.52012089944346,47.02621985808311,0 23.9694864871754,47.02166858109222,0 24.00201706635652,46.49735559319468,0 
						</coordinates>
					</LinearRing>
				</outerBoundaryIs>
			</Polygon>
		</Placemark>
		<Placemark>
			<name>13</name>
			<styleUrl>#msn_ylw-pushpin70</styleUrl>
			<Polygon>
				<tessellate>1</tessellate>
				<outerBoundaryIs>
					<LinearRing>
						<coordinates>
							23.92931044675295,46.48729370578963,0 23.93856059295045,46.08744218205446,0 24.60297952573626,46.09804685311863,0 24.5363599510181,46.51128368246823,0 23.92931044675295,46.48729370578963,0 
						</coordinates>
					</LinearRing>
				</outerBoundaryIs>
			</Polygon>
		</Placemark>
		<Placemark>
			<name>14</name>
			<styleUrl>#msn_ylw-pushpin70</styleUrl>
			<Polygon>
				<tessellate>1</tessellate>
				<outerBoundaryIs>
					<LinearRing>
						<coordinates>
							24.52522529408879,46.63920928987879,0 24.56682590377478,46.10232319011243,0 25.22874099612573,46.13543618374556,0 25.02590904390615,46.66182112096126,0 24.52522529408879,46.63920928987879,0 
						</coordinates>
					</LinearRing>
				</outerBoundaryIs>
			</Polygon>
		</Placemark>
		<Placemark>
			<name>15</name>
			<styleUrl>#msn_ylw-pushpin70</styleUrl>
			<Polygon>
				<tessellate>1</tessellate>
				<outerBoundaryIs>
					<LinearRing>
						<coordinates>
							23.94488645780223,46.07996264957575,0 23.95796702324219,45.7646837698308,0 24.74972689925463,45.78846776165284,0 24.71681279006162,46.08967962244248,0 23.94488645780223,46.07996264957575,0 
						</coordinates>
					</LinearRing>
				</outerBoundaryIs>
			</Polygon>
		</Placemark>
		<Placemark>
			<name>16</name>
			<styleUrl>#msn_ylw-pushpin70</styleUrl>
			<Polygon>
				<tessellate>1</tessellate>
				<outerBoundaryIs>
					<LinearRing>
						<coordinates>
							24.78936613059994,46.1026003747506,0 24.80206602510841,45.90980968482975,0 25.32423409083469,45.92765974355074,0 25.27774726986532,46.12211023971511,0 24.78936613059994,46.1026003747506,0 
						</coordinates>
					</LinearRing>
				</outerBoundaryIs>
			</Polygon>
		</Placemark>
		<Placemark>
			<name>6</name>
			<styleUrl>#msn_ylw-pushpin</styleUrl>
			<Polygon>
				<tessellate>1</tessellate>
				<outerBoundaryIs>
					<LinearRing>
						<coordinates>
							25.72012300740927,45.19816971824187,0 25.05548338018751,45.03147088182176,0 25.24940670392652,44.6835104459709,0 25.68268999998261,44.76792705479607,0 25.8556698142049,44.85239366715015,0 25.75286072837402,45.11113675731779,0 25.76094490760923,45.11379208506192,0 25.71996303948928,45.19788779129956,0 25.72012300740927,45.19816971824187,0 
						</coordinates>
					</LinearRing>
				</outerBoundaryIs>
			</Polygon>
		</Placemark>
		<Placemark>
			<name>1</name>
			<styleUrl>#msn_ylw-pushpin2</styleUrl>
			<Polygon>
				<tessellate>1</tessellate>
				<outerBoundaryIs>
					<LinearRing>
						<coordinates>
							23.62517119602563,44.64637242988465,0 23.98129780151932,44.68695612631987,0 23.98208796155548,44.90975161154253,0 23.86451228822932,45.04746810090314,0 22.94392131593115,45.05715599074723,0 23.03214420761652,44.65357575737437,0 23.3805796449171,44.65920333696833,0 23.57254504703967,44.64251975477522,0 23.62517119602563,44.64637242988465,0 
						</coordinates>
					</LinearRing>
				</outerBoundaryIs>
			</Polygon>
		</Placemark>
		<Placemark>
			<name>4</name>
			<styleUrl>#msn_ylw-pushpin2</styleUrl>
			<Polygon>
				<tessellate>1</tessellate>
				<outerBoundaryIs>
					<LinearRing>
						<coordinates>
							24.28569993091267,44.77375741188073,0 24.3373560965339,44.46635975247065,0 24.73712267478286,44.47844130255002,0 25.32210439301318,44.65752050051499,0 25.30066405889929,44.69354937639938,0 25.24974645923269,44.68350253774802,0 25.12825462143297,44.90107970853957,0 25.00350005603355,44.88215640258825,0 25.00784745577365,44.84535355953396,0 24.79393347824512,44.83705095214393,0 24.77087354372226,44.84502360648659,0 24.68159565362432,44.85635579485257,0 24.67607974218716,44.83532992235976,0 24.68606417745416,44.83288344585154,0 24.28569993091267,44.77375741188073,0 
						</coordinates>
					</LinearRing>
				</outerBoundaryIs>
			</Polygon>
		</Placemark>
		<Placemark>
			<name>3</name>
			<styleUrl>#msn_ylw-pushpin0</styleUrl>
			<Polygon>
				<tessellate>1</tessellate>
				<outerBoundaryIs>
					<LinearRing>
						<coordinates>
							24.00881913102264,44.79883149435727,0 24.67359617575058,44.83242416510447,0 24.68532022754842,44.8328820979232,0 24.676204495971,44.83539613166401,0 24.68176835896985,44.85637379708475,0 24.77081688239111,44.84551061823819,0 24.79407826189884,44.83708108303146,0 25.00806563137438,44.84612273698603,0 24.9748870177436,45.09956932040095,0 23.98262957689556,45.077777947383,0 24.00881913102264,44.79883149435727,0 
						</coordinates>
					</LinearRing>
				</outerBoundaryIs>
			</Polygon>
		</Placemark>
		<Placemark>
			<name>5a</name>
			<styleUrl>#msn_ylw-pushpin0</styleUrl>
			<Polygon>
				<tessellate>1</tessellate>
				<outerBoundaryIs>
					<LinearRing>
						<coordinates>
							25.0579328234874,44.57660248524586,0 24.73713301098346,44.47842066916378,0 24.62247074236036,44.47496971277575,0 24.61661787277078,44.25636858896338,0 25.05094222767264,44.25273243921593,0 25.21963366877358,44.16044509129188,0 25.46774312233134,44.16321509523246,0 25.46654904140674,44.17568418612352,0 25.45507136582585,44.17616179292372,0 25.45069020275064,44.287460678481,0 25.46250887875062,44.3023745104507,0 25.45071845144366,44.30822269551613,0 25.44371517170779,44.58949850311645,0 25.0579328234874,44.57660248524586,0 
						</coordinates>
					</LinearRing>
				</outerBoundaryIs>
			</Polygon>
		</Placemark>
		<Placemark>
			<name>5b</name>
			<styleUrl>#msn_ylw-pushpin1</styleUrl>
			<Polygon>
				<tessellate>1</tessellate>
				<outerBoundaryIs>
					<LinearRing>
						<coordinates>
							25.4432418325015,44.59165726133904,0 25.45093148631764,44.30836544241533,0 25.46175637439271,44.3038824041291,0 25.45082485454501,44.28776586310473,0 25.45536100937399,44.17635895932784,0 25.46617551011139,44.17590208489545,0 26.23070107649236,44.13925385495318,0 26.20723498485148,44.34765503513162,0 26.00326819266175,44.37686574277807,0 25.79233434153256,44.58177302611645,0 25.4432418325015,44.59165726133904,0 
						</coordinates>
					</LinearRing>
				</outerBoundaryIs>
			</Polygon>
		</Placemark>
	</Folder>
</Document>
</kml>
